Project Traffic Violations
…
group_year <- TV1 %>% group_by(Year) %>% summarise(count = n())
group_year <- group_year[with(group_year, order(-count)),]
group_year 

## # A tibble: 312 x 2
##     Year count
##    <int> <int>
##  1  2006 80080
##  2  2007 79299
##  3  2005 78297
##  4  2004 76986
##  5  2003 73713
##  6  2008 70497
##  7  2012 69235
##  8  2002 67402
##  9  2011 65332
## 10  2013 64674
## # ... with 302 more rows
…
